{
  "name": "shift",
  "plural": "shifts",
  "base": "PersistedModel",
  "idInjection": true,
  "options": {
    "validateUpsert": true
  },
  "properties": {
    "qdtBouncer": {
      "type": "number",
      "required": true
    },
    "creationDate": {
      "type": "date",
      "required": true
    },
    "interval": {
      "type": "number",
      "required": true
    },
    "userId": {
      "type": "string",
      "required": true
    },
    "id": {
      "type": "string"
    },
    "pay": {
      "type": "string",
      "required": true
    }
  },
  "validations": [],
  "relations": {},
  "acls": [
    {
      "accessType": "WRITE",
      "principalType": "ROLE",
      "principalId": "$unauthenticated",
      "permission": "DENY"
    },
    {
      "accessType": "WRITE",
      "principalType": "ROLE",
      "principalId": "$unauthenticated",
      "permission": "DENY"
    }
  ],
  "methods": {}
}
